Laboratório 9 - Regressão via pacote tidymodels
…
There were issues with some computations   A: x1

There were issues with some computations   A: x2

There were issues with some computations   A: x3
There were issues with some computations   A: x3

Extraindo métricas para avaliar os resultados da validação cruzada.

collect_metrics(race_results) |> 
  filter(.metric == "rmse") |>
  arrange(mean)

# A tibble: 50 × 9
   wflow_id .config         preproc model .metric .estimator  mean     n std_err
   <chr>    <chr>           <chr>   <chr> <chr>   <chr>      <dbl> <int>   <dbl>
 1 rforest  Preprocessor1_… recipe  rand… rmse    standard    290.    20    18.9
 2 rforest  Preprocessor1_… recipe  rand… rmse    standard    290.    20    19.6
 3 rforest  Preprocessor1_… recipe  rand… rmse    standard    291.    20    20.0
 4 rforest  Preprocessor1_… recipe  rand… rmse    standard    292.    20    20.2
 5 rforest  Preprocessor1_… recipe  rand… rmse    standard    293.    20    19.2
 6 rforest  Preprocessor1_… recipe  rand… rmse    standard    294.    20    19.5
 7 rforest  Preprocessor1_… recipe  rand… rmse    standard    294.    20    20.4
 8 rforest  Preprocessor1_… recipe  rand… rmse    standard    295.    20    19.6
 9 rforest  Preprocessor1_… recipe  rand… rmse    standard    295.    20    20.5
10 rforest  Preprocessor1_… recipe  rand… rmse    standard    296.    20    19.7
# ℹ 40 more rows

collect_metrics(race_results) |> 
  filter(.metric == "rsq") |>
  arrange(desc(mean))

# A tibble: 50 × 9
   wflow_id .config         preproc model .metric .estimator  mean     n std_err
   <chr>    <chr>           <chr>   <chr> <chr>   <chr>      <dbl> <int>   <dbl>
 1 rforest  Preprocessor1_… recipe  rand… rsq     standard   0.680    20  0.0330
 2 rforest  Preprocessor1_… recipe  rand… rsq     standard   0.680    20  0.0329
 3 rforest  Preprocessor1_… recipe  rand… rsq     standard   0.679    20  0.0316
 4 rforest  Preprocessor1_… recipe  rand… rsq     standard   0.677    20  0.0324
 5 rforest  Preprocessor1_… recipe  rand… rsq     standard   0.677    20  0.0319
 6 rforest  Preprocessor1_… recipe  rand… rsq     standard   0.677    20  0.0316
 7 rforest  Preprocessor1_… recipe  rand… rsq     standard   0.677    20  0.0324
 8 rforest  Preprocessor1_… recipe  rand… rsq     standard   0.673    20  0.0326
 9 rforest  Preprocessor1_… recipe  rand… rsq     standard   0.672    20  0.0320
10 rforest  Preprocessor1_… recipe  rand… rsq     standard   0.670    20  0.0313
# ℹ 40 more rows
…
There were issues with some computations   A: x16

There were issues with some computations   A: x17

There were issues with some computations   A: x18
There were issues with some computations   A: x18

Extraindo métricas para avaliar os resultados da validação cruzada.

collect_metrics(race_results2) |> 
  filter(.metric == "rmse") |>
  arrange(mean)

# A tibble: 35 × 9
   wflow_id       .config   preproc model .metric .estimator  mean     n std_err
   <chr>          <chr>     <chr>   <chr> <chr>   <chr>      <dbl> <int>   <dbl>
 1 XGB            Preproce… recipe  boos… rmse    standard    177.    20    3.39
 2 rforest        Preproce… recipe  rand… rmse    standard    198.    20    3.94
 3 bagging        Preproce… recipe  bag_… rmse    standard    211.    20    4.28
 4 SVM_poly       Preproce… recipe  svm_… rmse    standard    213.    20    3.78
 5 SVM_radial     Preproce… recipe  svm_… rmse    standard    214.    20    4.18
 6 SVM_poly       Preproce… recipe  svm_… rmse    standard    215.    20    4.13
 7 SVM_poly       Preproce… recipe  svm_… rmse    standard    217.    20    5.12
 8 MARS           Preproce… recipe  mars  rmse    standard    230.    20    3.47
 9 tree           Preproce… recipe  deci… rmse    standard    248.    20    5.87
10 neural_network Preproce… recipe  mlp   rmse    standard    252.    20    5.40
# ℹ 25 more rows

collect_metrics(race_results2) |> 
  filter(.metric == "rsq") |>
  arrange(desc(mean))

# A tibble: 35 × 9
   wflow_id       .config   preproc model .metric .estimator  mean     n std_err
   <chr>          <chr>     <chr>   <chr> <chr>   <chr>      <dbl> <int>   <dbl>
 1 XGB            Preproce… recipe  boos… rsq     standard   0.908    20 0.00317
 2 rforest        Preproce… recipe  rand… rsq     standard   0.887    20 0.00330
 3 bagging        Preproce… recipe  bag_… rsq     standard   0.869    20 0.00446
 4 SVM_radial     Preproce… recipe  svm_… rsq     standard   0.867    20 0.00438
 5 SVM_poly       Preproce… recipe  svm_… rsq     standard   0.866    20 0.00505
 6 SVM_poly       Preproce… recipe  svm_… rsq     standard   0.864    20 0.00520
 7 SVM_poly       Preproce… recipe  svm_… rsq     standard   0.861    20 0.00600
 8 MARS           Preproce… recipe  mars  rsq     standard   0.844    20 0.00454
 9 tree           Preproce… recipe  deci… rsq     standard   0.819    20 0.00821
10 neural_network Preproce… recipe  mlp   rsq     standard   0.812    20 0.00794
# ℹ 25 more rows
…
