MRR optimization subject to roughness constraint learning 1
…
augment(cubist_final_fit, new_data = plan_test) %>%
  rmse(truth = Ra, estimate = .pred)

# A tibble: 1 × 3
  .metric .estimator .estimate
  <chr>   <chr>          <dbl>
1 rmse    standard       0.288

cubist_fit <- cubist(x = plan_train[,1:4],
                     y = plan_train$Ra,
                     committees = 78, neighbors = 7)

tidyRules(cubist_fit)

# A tibble: 78 × 9
      id LHS   RHS                     support  mean   min   max error committee
   <int> <chr> <chr>                     <int> <dbl> <dbl> <dbl> <dbl>     <int>
 1     1 <NA>  (1.7705557) + (2.48 * …      30  2.36 0.866  4.72 0.402         1
 2     2 <NA>  (1.7705556) + (2.48 * …      30  2.36 0.866  4.72 0.402         2
 3     3 <NA>  (1.7705558) + (2.48 * …      30  2.36 0.866  4.72 0.402         3
 4     4 <NA>  (1.7705556) + (2.48 * …      30  2.36 0.866  4.72 0.402         4
 5     5 <NA>  (1.7705558) + (2.48 * …      30  2.36 0.866  4.72 0.402         5
 6     6 <NA>  (1.7705556) + (2.48 * …      30  2.36 0.866  4.72 0.402         6
 7     7 <NA>  (1.7705558) + (2.48 * …      30  2.36 0.866  4.72 0.402         7
 8     8 <NA>  (1.7705556) + (2.48 * …      30  2.36 0.866  4.72 0.402         8
 9     9 <NA>  (1.7705558) + (2.48 * …      30  2.36 0.866  4.72 0.402         9
10    10 <NA>  (1.7705556) + (2.48 * …      30  2.36 0.866  4.72 0.402        10
# ℹ 68 more rows
…
