Ra modeling with SVM radial - Helical milling of Inconel 718 with round carbide inserts
…
collect_metrics(tune_res) %>%
  arrange(mean)

# A tibble: 200 × 8
    cost rbf_sigma .metric .estimator  mean     n std_err .config               
   <dbl>     <dbl> <chr>   <chr>      <dbl> <int>   <dbl> <chr>                 
 1  3.17   0.0774  rmse    standard   0.438    20  0.0673 Preprocessor1_Model088
 2 32      0.00599 rmse    standard   0.454    20  0.0676 Preprocessor1_Model080
 3  1      0.0774  rmse    standard   0.459    20  0.0749 Preprocessor1_Model087
 4 10.1    0.0774  rmse    standard   0.501    20  0.0638 Preprocessor1_Model089
 5 10.1    0.00599 rmse    standard   0.507    20  0.0697 Preprocessor1_Model079
 6 10.1    1       rsq     standard   0.535    20  0.0680 Preprocessor1_Model099
 7 32      1       rsq     standard   0.535    20  0.0680 Preprocessor1_Model100
 8  3.17   1       rsq     standard   0.535    20  0.0679 Preprocessor1_Model098
 9 32      0.0774  rmse    standard   0.566    20  0.0697 Preprocessor1_Model090
10  1      1       rsq     standard   0.572    20  0.0786 Preprocessor1_Model097
# ℹ 190 more rows
…
