Ra modelling through CART
…
collect_metrics(tune_res1) %>%
  filter(.metric == "rmse") %>%
  arrange(mean)

# A tibble: 1,000 × 9
   cost_complexity tree_depth min_n .metric .estimator  mean     n std_err
             <dbl>      <int> <int> <chr>   <chr>      <dbl> <int>   <dbl>
 1    0.0000000001          5     6 rmse    standard   0.604    20   0.100
 2    0.000000001           5     6 rmse    standard   0.604    20   0.100
 3    0.00000001            5     6 rmse    standard   0.604    20   0.100
 4    0.0000001             5     6 rmse    standard   0.604    20   0.100
 5    0.000001              5     6 rmse    standard   0.604    20   0.100
 6    0.00001               5     6 rmse    standard   0.604    20   0.100
 7    0.0001                5     6 rmse    standard   0.604    20   0.100
 8    0.0000000001          7     6 rmse    standard   0.604    20   0.100
 9    0.000000001           7     6 rmse    standard   0.604    20   0.100
10    0.00000001            7     6 rmse    standard   0.604    20   0.100
# ℹ 990 more rows
# ℹ 1 more variable: .config <chr>

collect_metrics(tune_res1) %>%
  filter(.metric == "rsq") %>%
  arrange(desc(mean))

# A tibble: 1,000 × 9
   cost_complexity tree_depth min_n .metric .estimator  mean     n std_err
             <dbl>      <int> <int> <chr>   <chr>      <dbl> <int>   <dbl>
 1    0.0000000001          5     6 rsq     standard   0.808    19  0.0571
 2    0.000000001           5     6 rsq     standard   0.808    19  0.0571
 3    0.00000001            5     6 rsq     standard   0.808    19  0.0571
 4    0.0000001             5     6 rsq     standard   0.808    19  0.0571
 5    0.000001              5     6 rsq     standard   0.808    19  0.0571
 6    0.00001               5     6 rsq     standard   0.808    19  0.0571
 7    0.0001                5     6 rsq     standard   0.808    19  0.0571
 8    0.0000000001          7     6 rsq     standard   0.808    19  0.0571
 9    0.000000001           7     6 rsq     standard   0.808    19  0.0571
10    0.00000001            7     6 rsq     standard   0.808    19  0.0571
# ℹ 990 more rows
# ℹ 1 more variable: .config <chr>
…
