Ra modeling with Cubist - Helical milling of Inconel 718 with round carbide inserts
…
Sorting models considering RMSE.

collect_metrics(tune_res1) %>%
  arrange(mean)

# A tibble: 200 × 8
   committees neighbors .metric .estimator  mean     n std_err .config          
        <int>     <int> <chr>   <chr>      <dbl> <int>   <dbl> <chr>            
 1         12         9 rmse    standard   0.444    20  0.0645 Preprocessor1_Mo…
 2         78         9 rmse    standard   0.444    20  0.0645 Preprocessor1_Mo…
 3         89         9 rmse    standard   0.445    20  0.0644 Preprocessor1_Mo…
 4         67         9 rmse    standard   0.445    20  0.0644 Preprocessor1_Mo…
 5         34         9 rmse    standard   0.445    20  0.0644 Preprocessor1_Mo…
 6         56         9 rmse    standard   0.445    20  0.0643 Preprocessor1_Mo…
 7          1         9 rmse    standard   0.446    20  0.0643 Preprocessor1_Mo…
 8        100         9 rmse    standard   0.446    20  0.0642 Preprocessor1_Mo…
 9         23         9 rmse    standard   0.446    20  0.0642 Preprocessor1_Mo…
10         45         9 rmse    standard   0.447    20  0.0642 Preprocessor1_Mo…
# ℹ 190 more rows
…
