Ra modeling - Helical milling of Inconel 718 with round carbide inserts
…
Resuls are sorted considering RMSE.

collect_metrics(race_results) %>% 
  filter(.metric == "rmse") %>%
  arrange(mean)

# A tibble: 21 × 9
   wflow_id       .config   preproc model .metric .estimator  mean     n std_err
   <chr>          <chr>     <chr>   <chr> <chr>   <chr>      <dbl> <int>   <dbl>
 1 neural_network Preproce… recipe  mlp   rmse    standard   0.414    20  0.0556
 2 Cubist         Preproce… recipe  cubi… rmse    standard   0.445    20  0.0643
 3 SVM_radial     Preproce… recipe  svm_… rmse    standard   0.445    20  0.0711
 4 Cubist         Preproce… recipe  cubi… rmse    standard   0.448    20  0.0638
 5 Cubist         Preproce… recipe  cubi… rmse    standard   0.448    20  0.0637
 6 Cubist         Preproce… recipe  cubi… rmse    standard   0.449    20  0.0637
 7 SVM_poly       Preproce… recipe  svm_… rmse    standard   0.450    20  0.0681
 8 neural_network Preproce… recipe  mlp   rmse    standard   0.451    20  0.0582
 9 SVM_poly       Preproce… recipe  svm_… rmse    standard   0.458    20  0.0642
10 SVM_poly       Preproce… recipe  svm_… rmse    standard   0.459    20  0.0675
# ℹ 11 more rows

Resuls are sorted considering R^2.

collect_metrics(race_results) %>% 
  filter(.metric == "rsq") %>%
  arrange(desc(mean))

# A tibble: 21 × 9
   wflow_id       .config   preproc model .metric .estimator  mean     n std_err
   <chr>          <chr>     <chr>   <chr> <chr>   <chr>      <dbl> <int>   <dbl>
 1 neural_network Preproce… recipe  mlp   rsq     standard   0.843    19  0.0543
 2 SVM_radial     Preproce… recipe  svm_… rsq     standard   0.841    20  0.0598
 3 Cubist         Preproce… recipe  cubi… rsq     standard   0.836    20  0.0534
 4 Cubist         Preproce… recipe  cubi… rsq     standard   0.835    20  0.0535
 5 Cubist         Preproce… recipe  cubi… rsq     standard   0.835    20  0.0535
 6 SVM_poly       Preproce… recipe  svm_… rsq     standard   0.835    20  0.0548
 7 Cubist         Preproce… recipe  cubi… rsq     standard   0.833    20  0.0530
 8 KNN            Preproce… recipe  near… rsq     standard   0.832    20  0.0558
 9 SVM_poly       Preproce… recipe  svm_… rsq     standard   0.819    20  0.0558
10 SVM_poly       Preproce… recipe  svm_… rsq     standard   0.811    20  0.0551
# ℹ 11 more rows
…
